NAME: mock
TYPE: TSP
COMMENT: 5 city problem
DIMENSION: 5
EDGE_WEIGHT_TYPE: EUC_2D
BEST_KNOWN: 6110
NODE_COORD_SECTION
1 334.5909245845 161.7809319139
2 397.6446634067 262.8165330708
3 503.8741827107 172.8741151168
4 444.0479403502 384.6491809647
5 311.6137146746 2.0091699828
EOF
